…
> dim(kid9core)
[1] 3407146      45
> 
> system.time({
+   test_10 <-
+     ccc(kid9core,
+         id      = recnum,
+         dx_cols = vars(starts_with("dx"), starts_with("ecode")),
+         pc_cols = vars(starts_with("pr")),
+         icdv    = 10)
+ })
   user  system elapsed 
 631.23    0.49  631.72 
> test_10
# A tibble: 3,407,146 × 14
   recnum Neuromuscular   CVD Respiratory Renal    GI Hemato_immu Metabolic
    <chr>         <int> <int>       <int> <int> <int>       <int>     <int>
1    3921             0     0           0     0     0           0         0
2    7181             0     0           0     0     0           0         0
3   10089             0     0           0     0     0           0         0
4   18008             0     0           0     0     0           0         0
5   18113             0     0           0     0     0           0         0
6   18387             0     0           0     0     0           0         0
7   20783             0     0           0     0     0           0         0
8   22380             0     0           0     0     0           0         0
9   31665             0     0           0     0     0           0         0
10  32270             0     0           0     0     0           0         0
# ... with 3,407,136 more rows, and 6 more variables: Congeni_genetric <int>,
#   Malignancy <int>, Neonatal <int>, Tech_dep <int>, Transplant <int>,
#   ccc_flag <int>
…
1                0          0        0        0          0 2.641507e-05
> 
> system.time({
+   test_09 <-
+     ccc(kid9core,
+         id      = recnum,
+         dx_cols = vars(starts_with("dx"), starts_with("ecode")),
+         pc_cols = vars(starts_with("pr")),
+         icdv    = 09)
+ })
   user  system elapsed 
 202.79    0.55  203.34 
> 
> test_09
# A tibble: 3,407,146 × 14
   recnum Neuromuscular   CVD Respiratory Renal    GI Hemato_immu Metabolic
    <chr>         <int> <int>       <int> <int> <int>       <int>     <int>
1    3921             0     0           0     0     0           0         0
2    7181             0     0           0     0     0           0         0
3   10089             0     0           0     0     0           0         0
4   18008             0     0           0     0     0           0         0
5   18113             0     0           0     0     0           0         0
6   18387             0     0           0     0     0           0         0
7   20783             0     1           0     0     0           0         0
8   22380             0     0           0     1     0           0         0
9   31665             0     0           0     0     0           0         0
10  32270             0     0           0     0     0           0         0
# ... with 3,407,136 more rows, and 6 more variables: Congeni_genetric <int>,
#   Malignancy <int>, Neonatal <int>, Tech_dep <int>, Transplant <int>,
#   ccc_flag <int>
…
